…
We don't need to get too far into the mechanics of this package - if you load the tidyverse, any new dataframes you make will be converted into tibbles by default. If you want to force any old dataframe into this format, use ```as.tibble()```; if you need the basic dataframe, use ```as.data.frame()```.

### Subsetting Data

Let's go back to our ```iris``` dataset. I'm going to turn it into a tibble and then view it:


```r
iris <- as.tibble(iris)
iris
```

```
## # A tibble: 150 x 5
##    Sepal.Length Sepal.Width Petal.Length Petal.Width Species
##           <dbl>       <dbl>        <dbl>       <dbl> <fct>  
##  1         5.10        3.50         1.40       0.200 setosa 
##  2         4.90        3.00         1.40       0.200 setosa 
##  3         4.70        3.20         1.30       0.200 setosa 
##  4         4.60        3.10         1.50       0.200 setosa 
##  5         5.00        3.60         1.40       0.200 setosa 
##  6         5.40        3.90         1.70       0.400 setosa 
##  7         4.60        3.40         1.40       0.300 setosa 
##  8         5.00        3.40         1.50       0.200 setosa 
##  9         4.40        2.90         1.40       0.200 setosa 
## 10         4.90        3.10         1.50       0.100 setosa 
## # ... with 140 more rows
```

If we only wanted to work with part of this dataset, R gives us a lot of options to _subset_ the data. For instance, if we only wanted the first column containing sepal length, we could type this:


```r
iris[, 1]
```

```
## # A tibble: 150 x 1
##    Sepal.Length
##           <dbl>
##  1         5.10
##  2         4.90
##  3         4.70
##  4         4.60
##  5         5.00
##  6         5.40
##  7         4.60
##  8         5.00
##  9         4.40
## 10         4.90
## # ... with 140 more rows
```
…
(Note that "cor.test()" runs Pearson's correlation test for whatever vectors you feed it - more on that test later, or [here](https://bookdown.org/ndphillips/YaRrr/correlation-cor-test.html)).

And ```$``` also lets us filter our data with conditionals - getting values that are equal to something, larger or smaller than it, and so on. For instance, if we want a dataframe (so ```[]```) where the rows (```[, ]```) all have a Species value of (```===```) "setosa":


```r
iris[iris$Species == "setosa", ]
```

```
## # A tibble: 50 x 5
##    Sepal.Length Sepal.Width Petal.Length Petal.Width Species
##           <dbl>       <dbl>        <dbl>       <dbl> <fct>  
##  1         5.10        3.50         1.40       0.200 setosa 
##  2         4.90        3.00         1.40       0.200 setosa 
##  3         4.70        3.20         1.30       0.200 setosa 
##  4         4.60        3.10         1.50       0.200 setosa 
##  5         5.00        3.60         1.40       0.200 setosa 
##  6         5.40        3.90         1.70       0.400 setosa 
##  7         4.60        3.40         1.40       0.300 setosa 
##  8         5.00        3.40         1.50       0.200 setosa 
##  9         4.40        2.90         1.40       0.200 setosa 
## 10         4.90        3.10         1.50       0.100 setosa 
## # ... with 40 more rows
```
…
You can use ```==```, ```>```, ```>=```, ```<```, ```<=```, and ```!=``` (not equal) to subset your data.

### Filtering with the Tidyverse
This code is hard to read as a human, and doesn't work well with other functions. For instance, imagine trying to make a scatterplot of just the setosa data - your code will become almost unparseable. 

Instead, for more involved subsets, dplyr has a useful ```filter()``` function. It takes two arguments - your dataframe and the condition it should filter based on:


```r
iris %>%
  filter(Species == "setosa")
```

```
## # A tibble: 50 x 5
##    Sepal.Length Sepal.Width Petal.Length Petal.Width Species
##           <dbl>       <dbl>        <dbl>       <dbl> <fct>  
##  1         5.10        3.50         1.40       0.200 setosa 
##  2         4.90        3.00         1.40       0.200 setosa 
##  3         4.70        3.20         1.30       0.200 setosa 
##  4         4.60        3.10         1.50       0.200 setosa 
##  5         5.00        3.60         1.40       0.200 setosa 
##  6         5.40        3.90         1.70       0.400 setosa 
##  7         4.60        3.40         1.40       0.300 setosa 
##  8         5.00        3.40         1.50       0.200 setosa 
##  9         4.40        2.90         1.40       0.200 setosa 
## 10         4.90        3.10         1.50       0.100 setosa 
## # ... with 40 more rows
```
…
Which, because no flower is both species, returns nothing.

In this case, you can either use an ```|``` ("or") operator, or - particularly if you have several cases you want to accept - ```%in%```:


```r
iris %>%
  filter(Species %in% c("setosa",
                        "versicolor"))
```

```
## # A tibble: 100 x 5
##    Sepal.Length Sepal.Width Petal.Length Petal.Width Species
##           <dbl>       <dbl>        <dbl>       <dbl> <fct>  
##  1         5.10        3.50         1.40       0.200 setosa 
##  2         4.90        3.00         1.40       0.200 setosa 
##  3         4.70        3.20         1.30       0.200 setosa 
##  4         4.60        3.10         1.50       0.200 setosa 
##  5         5.00        3.60         1.40       0.200 setosa 
##  6         5.40        3.90         1.70       0.400 setosa 
##  7         4.60        3.40         1.40       0.300 setosa 
##  8         5.00        3.40         1.50       0.200 setosa 
##  9         4.40        2.90         1.40       0.200 setosa 
## 10         4.90        3.10         1.50       0.100 setosa 
## # ... with 90 more rows
```
…
This is a faster and easier to understand way to perform functions on groups of data. Note that ```summarise()``` uses the British spelling - almost all functions in R have British and American spellings built in (you can use ```color``` or ```colour``` aesthetics in ggplot, for instance), but this is an important exception. While there is a function called ```summarize()```, it's highly glitchy and its use is highly discouraged.

You can use ```group_by()``` to calculate all sorts of things - for instance, we can calculate the distance of each plant's sepal length from the group mean, as follows:


```r
iris %>%
  group_by(Species) %>%
  mutate(SLDistanceFromMean = Sepal.Length - mean(Sepal.Length))
```

```
## # A tibble: 150 x 6
## # Groups:   Species [3]
##    Sepal.Length Sepal.Width Petal.Length Petal.Width Species
##           <dbl>       <dbl>        <dbl>       <dbl> <fct>  
##  1         5.10        3.50         1.40       0.200 setosa 
##  2         4.90        3.00         1.40       0.200 setosa 
##  3         4.70        3.20         1.30       0.200 setosa 
##  4         4.60        3.10         1.50       0.200 setosa 
##  5         5.00        3.60         1.40       0.200 setosa 
##  6         5.40        3.90         1.70       0.400 setosa 
##  7         4.60        3.40         1.40       0.300 setosa 
##  8         5.00        3.40         1.50       0.200 setosa 
##  9         4.40        2.90         1.40       0.200 setosa 
## 10         4.90        3.10         1.50       0.100 setosa 
## # ... with 140 more rows, and 1 more variable: SLDistanceFromMean <dbl>
```

If you want to calculate variables for the whole dataset again, you'll have to ungroup your data - dataframes will stay grouped until you actively ungroup them with ```ungroup()```. For instance, to calculate the distance of each plant's sepal length from the overall mean:


```r
iris %>%
  select(c(Sepal.Length, Species)) %>%
  group_by(Species) %>%
  mutate(SLDistanceFromGroupMean = Sepal.Length - mean(Sepal.Length)) %>%
  ungroup() %>%
  mutate(SLDistanceFromTotalMean = Sepal.Length - mean(Sepal.Length))
```

```
## # A tibble: 150 x 4
##    Sepal.Length Species SLDistanceFromGroupMean SLDistanceFromTotalMean
##           <dbl> <fct>                     <dbl>                   <dbl>
##  1         5.10 setosa                  0.0940                   -0.743
##  2         4.90 setosa                 -0.106                    -0.943
##  3         4.70 setosa                 -0.306                    -1.14 
##  4         4.60 setosa                 -0.406                    -1.24 
##  5         5.00 setosa                 -0.00600                  -0.843
##  6         5.40 setosa                  0.394                    -0.443
##  7         4.60 setosa                 -0.406                    -1.24 
##  8         5.00 setosa                 -0.00600                  -0.843
##  9         4.40 setosa                 -0.606                    -1.44 
## 10         4.90 setosa                 -0.106                    -0.943
## # ... with 140 more rows
```
…
## Count Data
One other common issue with field data is that it's in a summary form - for instance, our tree data summarizes the number of trees at each site into one column. This is often easier to record in the field and easier to read as a human - but it makes some analyses much harder!

The function ```uncount()``` makes this pretty easy for us:


```r
LongTreeData <- TreeData %>%
  uncount(Count)

LongTreeData
```

```
## # A tibble: 57 x 2
##    Site  Species  
##    <chr> <chr>    
##  1 A     Red Maple
##  2 A     Red Maple
##  3 A     Red Maple
##  4 A     Red Maple
##  5 A     Red Maple
##  6 A     Red Maple
##  7 A     Red Maple
##  8 A     Red Maple
##  9 A     Red Maple
## 10 A     Red Maple
## # ... with 47 more rows
```
…
