…
```
## Parsed with column specification:
## cols(
##   NOC = col_character(),
##   region = col_character(),
##   notes = col_character()
## )
```

```r
NOCRegions
```

```
## # A tibble: 230 x 3
##    NOC   region      notes               
##    <chr> <chr>       <chr>               
##  1 AFG   Afghanistan <NA>                
##  2 AHO   Curacao     Netherlands Antilles
##  3 ALB   Albania     <NA>                
##  4 ALG   Algeria     <NA>                
##  5 AND   Andorra     <NA>                
##  6 ANG   Angola      <NA>                
##  7 ANT   Antigua     Antigua and Barbuda 
##  8 ANZ   Australia   Australasia         
##  9 ARG   Argentina   <NA>                
## 10 ARM   Armenia     <NA>                
## # ... with 220 more rows
```
…
```r
AthleteEvents
```

```
## # A tibble: 271,116 x 13
##       ID Name  Sex     Age Height Weight NOC   Games  Year Season Sport
##    <int> <chr> <chr> <int>  <int>  <dbl> <chr> <chr> <int> <chr>  <chr>
##  1     1 A Di… M        24    180     80 CHN   1992…  1992 Summer Bask…
##  2     2 A La… M        23    170     60 CHN   2012…  2012 Summer Judo 
##  3     3 Gunn… M        24     NA     NA DEN   1920…  1920 Summer Foot…
##  4     4 Edga… M        34     NA     NA DEN   1900…  1900 Summer Tug-…
##  5     5 Chri… F        21    185     82 NED   1988…  1988 Winter Spee…
##  6     5 Chri… F        21    185     82 NED   1988…  1988 Winter Spee…
##  7     5 Chri… F        25    185     82 NED   1992…  1992 Winter Spee…
##  8     5 Chri… F        25    185     82 NED   1992…  1992 Winter Spee…
##  9     5 Chri… F        27    185     82 NED   1994…  1994 Winter Spee…
## 10     5 Chri… F        27    185     82 NED   1994…  1994 Winter Spee…
## # ... with 271,106 more rows, and 2 more variables: Event <chr>,
## #   Medal <chr>
```
…
```r
AthleteEvents
```

```
## # A tibble: 271,116 x 13
##       ID Name  Sex     Age Height Weight NOC   Games  Year Season Sport
##    <int> <chr> <chr> <int>  <int>  <dbl> <chr> <chr> <int> <chr>  <chr>
##  1     1 A Di… M        24    180     80 CHN   1992…  1992 Summer Bask…
##  2     2 A La… M        23    170     60 CHN   2012…  2012 Summer Judo 
##  3     3 Gunn… M        24     NA     NA DEN   1920…  1920 Summer Foot…
##  4     4 Edga… M        34     NA     NA DEN   1900…  1900 Summer Tug-…
##  5     5 Chri… F        21    185     82 NED   1988…  1988 Winter Spee…
##  6     5 Chri… F        21    185     82 NED   1988…  1988 Winter Spee…
##  7     5 Chri… F        25    185     82 NED   1992…  1992 Winter Spee…
##  8     5 Chri… F        25    185     82 NED   1992…  1992 Winter Spee…
##  9     5 Chri… F        27    185     82 NED   1994…  1994 Winter Spee…
## 10     5 Chri… F        27    185     82 NED   1994…  1994 Winter Spee…
## # ... with 271,106 more rows, and 2 more variables: Event <chr>,
## #   Medal <chr>
```
…
```r
library(readxl)
```


```r
NBAStats <- read_excel("players_stats.xlsx")
NBAStats
```

```
## # A tibble: 490 x 34
##    Name  `Games Played`   MIN   PTS   FGM   FGA `FG%` `3PM` `3PA` `3P%`
##    <chr>          <dbl> <dbl> <dbl> <dbl> <dbl> <dbl> <dbl> <dbl> <dbl>
##  1 AJ P…             26   324   133    51   137  37.2    15    57  26.3
##  2 Aaro…             82  1885   954   344   817  42.1   121   313  38.7
##  3 Aaro…             47   797   243    93   208  44.7    13    48  27.1
##  4 Adre…             32   740   213    91   220  41.4     1     9  11.1
##  5 Al H…             76  2318  1156   519   965  53.8    11    36  30.6
##  6 Al J…             65  1992  1082   486  1010  48.1     2     5  40  
##  7 Alan…             74  1744   545   195   440  44.3    73   210  34.8
##  8 Alec…             27   899   374   121   300  40.3    26    68  38.2
##  9 Alex…              5    14     4     1     4  25       0     0   0  
## 10 Alex…             69  1518   432   179   353  50.7     1     3  33.3
## # ... with 480 more rows, and 24 more variables: FTM <dbl>, FTA <dbl>,
## #   `FT%` <dbl>, OREB <dbl>, DREB <dbl>, REB <dbl>, AST <dbl>, STL <dbl>,
## #   BLK <dbl>, TOV <dbl>, PF <dbl>, EFF <dbl>, `AST/TOV` <dbl>,
## #   `STL/TOV` <dbl>, Age <dbl>, Birth_Place <chr>, Birthdate <dttm>,
## #   Collage <chr>, Experience <chr>, Height <dbl>, Pos <chr>, Team <chr>,
## #   Weight <dbl>, BMI <dbl>
```
…
So we're right in thinking that height and weight are correlated, but maybe not age. It is interesting to see that year is more correlated with age than any other variable!

Moving back to the full dataset, I have a few other questions I want to ask. First off, when did women start competing? It would be useful to know if our gender distributions have significantly different lengths. Let's ```count()``` the number of male and female athletes per year:


```r
AthleteEvents %>%
  count(Year, Sex)
```

```
## # A tibble: 69 x 3
##     Year Sex       n
##    <int> <chr> <int>
##  1  1896 M       380
##  2  1900 F        33
##  3  1900 M      1903
##  4  1904 F        16
##  5  1904 M      1285
##  6  1906 F        11
##  7  1906 M      1722
##  8  1908 F        47
##  9  1908 M      3054
## 10  1912 F        87
## # ... with 59 more rows
```
…
