Introduction to Data Exploration and Analysis with R
…
## v ggplot2 3.0.0     v purrr   0.2.4
## v tibble  1.4.2     v dplyr   0.7.4
## v tidyr   0.8.0     v stringr 1.3.0
## v readr   1.1.1     v forcats 0.3.0

## -- Conflicts ------------------------------------------ tidyverse_conflicts() --
## x dplyr::filter() masks stats::filter()
## x dplyr::lag()    masks stats::lag()

The gapminder package includes four tables, of which we only care about one: gapminder. We can preview the data, as usual, by typing the name of the table:

gapminder

## # A tibble: 1,704 x 6
##    country     continent  year lifeExp      pop gdpPercap
##    <fct>       <fct>     <int>   <dbl>    <int>     <dbl>
##  1 Afghanistan Asia       1952    28.8  8425333      779.
##  2 Afghanistan Asia       1957    30.3  9240934      821.
##  3 Afghanistan Asia       1962    32.0 10267083      853.
##  4 Afghanistan Asia       1967    34.0 11537966      836.
##  5 Afghanistan Asia       1972    36.1 13079460      740.
##  6 Afghanistan Asia       1977    38.4 14880372      786.
##  7 Afghanistan Asia       1982    39.9 12881816      978.
##  8 Afghanistan Asia       1987    40.8 13867957      852.
##  9 Afghanistan Asia       1992    41.7 16317921      649.
## 10 Afghanistan Asia       1997    41.8 22227415      635.
## # ... with 1,694 more rows
…
## # A tibble: 1 x 1
##   data              
##   <list>            
## 1 <tibble [396 x 5]>

If we then wanted to, we can unnest() the data:

Nested <- gapminder %>%
  nest(-continent)

Nested[1, 2] %>%
  unnest()

## # A tibble: 396 x 5
##    country      year lifeExp      pop gdpPercap
##    <fct>       <int>   <dbl>    <int>     <dbl>
##  1 Afghanistan  1952    28.8  8425333      779.
##  2 Afghanistan  1957    30.3  9240934      821.
##  3 Afghanistan  1962    32.0 10267083      853.
##  4 Afghanistan  1967    34.0 11537966      836.
##  5 Afghanistan  1972    36.1 13079460      740.
##  6 Afghanistan  1977    38.4 14880372      786.
##  7 Afghanistan  1982    39.9 12881816      978.
##  8 Afghanistan  1987    40.8 13867957      852.
##  9 Afghanistan  1992    41.7 16317921      649.
## 10 Afghanistan  1997    41.8 22227415      635.
## # ... with 386 more rows
…
