5 Introduction to Data Analysis | Introduction to Data Exploration and Analysis with R
…
gapminder_unfiltered %>%
  filter(gdpPercap == min(gdpPercap))

## # A tibble: 1 x 6
##   country          continent  year lifeExp      pop gdpPercap
##   <fct>            <fct>     <int>   <dbl>    <int>     <dbl>
## 1 Congo, Dem. Rep. Africa     2002    45.0 55379852      241.

As history buffs might know, these values are both (sadly) explained by politics and history. The other oddball I want to check is what the “FSU” continent is meant to represent:

gapminder_unfiltered %>%
  filter(continent == "FSU")

## # A tibble: 139 x 6
##    country continent  year lifeExp      pop gdpPercap
##    <fct>   <fct>     <int>   <dbl>    <int>     <dbl>
##  1 Armenia FSU        1992    68.7  3378331     1443.
##  2 Armenia FSU        1997    70.4  3059000     1791.
##  3 Armenia FSU        2002    71.4  3013818     2692.
##  4 Armenia FSU        2007    72.0  2971650     4943.
##  5 Belarus FSU        1973    72.7  9236465     4959.
##  6 Belarus FSU        1990    71.2 10215208     6808.
##  7 Belarus FSU        1991    70.6 10244639     6693.
##  8 Belarus FSU        1992    70.2 10306362     6014.
##  9 Belarus FSU        1993    69.0 10360516     5528.
## 10 Belarus FSU        1994    68.8 10387841     4869.
## # … with 129 more rows
…
