Introduction to Data Exploration and Analysis with R
…
All the datasets included in our example use different delimiters - the character that tells R (or Excel, or whatever program you’re using) where one column stops and the next one begins. No matter what your delimiter is, we can parse the file using read_delim() - the first argument is the filename to read, while the second is the delimiter used. For instance, our text file is tab delimited - and since tabs are represented in R as \t, we’ll tell read_delim() to use that as a delimiter:

NOCRegions <- read_delim("noc_regions.txt", "\t")

## Parsed with column specification:
## cols(
##   NOC = col_character(),
##   region = col_character(),
##   notes = col_character()
## )

NOCRegions

## # A tibble: 230 x 3
##    NOC   region      notes               
##    <chr> <chr>       <chr>               
##  1 AFG   Afghanistan <NA>                
##  2 AHO   Curacao     Netherlands Antilles
##  3 ALB   Albania     <NA>                
##  4 ALG   Algeria     <NA>                
##  5 AND   Andorra     <NA>                
##  6 ANG   Angola      <NA>                
##  7 ANT   Antigua     Antigua and Barbuda 
##  8 ANZ   Australia   Australasia         
##  9 ARG   Argentina   <NA>                
## 10 ARM   Armenia     <NA>                
## # ... with 220 more rows
…
AthleteEvents

## # A tibble: 271,116 x 13
##       ID Name    Sex     Age Height Weight NOC   Games   Year Season Sport
##    <int> <chr>   <chr> <int>  <int>  <dbl> <chr> <chr>  <int> <chr>  <chr>
##  1     1 A Diji~ M        24    180    80. CHN   1992 ~  1992 Summer Bask~
##  2     2 A Lamu~ M        23    170    60. CHN   2012 ~  2012 Summer Judo 
##  3     3 Gunnar~ M        24     NA    NA  DEN   1920 ~  1920 Summer Foot~
##  4     4 Edgar ~ M        34     NA    NA  DEN   1900 ~  1900 Summer Tug-~
##  5     5 Christ~ F        21    185    82. NED   1988 ~  1988 Winter Spee~
##  6     5 Christ~ F        21    185    82. NED   1988 ~  1988 Winter Spee~
##  7     5 Christ~ F        25    185    82. NED   1992 ~  1992 Winter Spee~
##  8     5 Christ~ F        25    185    82. NED   1992 ~  1992 Winter Spee~
##  9     5 Christ~ F        27    185    82. NED   1994 ~  1994 Winter Spee~
## 10     5 Christ~ F        27    185    82. NED   1994 ~  1994 Winter Spee~
## # ... with 271,106 more rows, and 2 more variables: Event <chr>,
## #   Medal <chr>
…
AthleteEvents

## # A tibble: 271,116 x 13
##       ID Name    Sex     Age Height Weight NOC   Games   Year Season Sport
##    <int> <chr>   <chr> <int>  <int>  <dbl> <chr> <chr>  <int> <chr>  <chr>
##  1     1 A Diji~ M        24    180    80. CHN   1992 ~  1992 Summer Bask~
##  2     2 A Lamu~ M        23    170    60. CHN   2012 ~  2012 Summer Judo 
##  3     3 Gunnar~ M        24     NA    NA  DEN   1920 ~  1920 Summer Foot~
##  4     4 Edgar ~ M        34     NA    NA  DEN   1900 ~  1900 Summer Tug-~
##  5     5 Christ~ F        21    185    82. NED   1988 ~  1988 Winter Spee~
##  6     5 Christ~ F        21    185    82. NED   1988 ~  1988 Winter Spee~
##  7     5 Christ~ F        25    185    82. NED   1992 ~  1992 Winter Spee~
##  8     5 Christ~ F        25    185    82. NED   1992 ~  1992 Winter Spee~
##  9     5 Christ~ F        27    185    82. NED   1994 ~  1994 Winter Spee~
## 10     5 Christ~ F        27    185    82. NED   1994 ~  1994 Winter Spee~
## # ... with 271,106 more rows, and 2 more variables: Event <chr>,
## #   Medal <chr>

Now, readr doesn’t have native support for more complicated files, like Excel files. Philosphically, you shouldn’t store data in Excel format for long periods of time - we have no idea how long Microsoft will be around for, and the encoding used by Excel may someday disappear and take your data with it. CSVs are generally preferred for long-term data storage, as they’re easy to understand visually and are easily parsed by computers.

However, data entry is much easier in Excel, and plenty of data professionals still use the format. Luckily, there’s a package - readxl - designed to parse these types of files:

install.packages("readxl")

library(readxl)

NBAStats <- read_excel("players_stats.xlsx")
NBAStats

## # A tibble: 490 x 34
##    Name     `Games Played`   MIN   PTS   FGM   FGA `FG%` `3PM` `3PA` `3P%`
##    <chr>             <dbl> <dbl> <dbl> <dbl> <dbl> <dbl> <dbl> <dbl> <dbl>
##  1 AJ Price            26.  324.  133.   51.  137.  37.2   15.   57.  26.3
##  2 Aaron B~            82. 1885.  954.  344.  817.  42.1  121.  313.  38.7
##  3 Aaron G~            47.  797.  243.   93.  208.  44.7   13.   48.  27.1
##  4 Adreian~            32.  740.  213.   91.  220.  41.4    1.    9.  11.1
##  5 Al Horf~            76. 2318. 1156.  519.  965.  53.8   11.   36.  30.6
##  6 Al Jeff~            65. 1992. 1082.  486. 1010.  48.1    2.    5.  40.0
##  7 Alan An~            74. 1744.  545.  195.  440.  44.3   73.  210.  34.8
##  8 Alec Bu~            27.  899.  374.  121.  300.  40.3   26.   68.  38.2
##  9 Alex Ki~             5.   14.    4.    1.    4.  25.0    0.    0.   0. 
## 10 Alex Len            69. 1518.  432.  179.  353.  50.7    1.    3.  33.3
## # ... with 480 more rows, and 24 more variables: FTM <dbl>, FTA <dbl>,
## #   `FT%` <dbl>, OREB <dbl>, DREB <dbl>, REB <dbl>, AST <dbl>, STL <dbl>,
## #   BLK <dbl>, TOV <dbl>, PF <dbl>, EFF <dbl>, `AST/TOV` <dbl>,
## #   `STL/TOV` <dbl>, Age <dbl>, Birth_Place <chr>, Birthdate <dttm>,
## #   Collage <chr>, Experience <chr>, Height <dbl>, Pos <chr>, Team <chr>,
## #   Weight <dbl>, BMI <dbl>
…
##                  ID          Age      Height       Weight        Year
## ID      1.000000000 -0.002100308 -0.01219033 -0.009038648 0.007066518
## Age    -0.002100308  1.000000000  0.14168449  0.212040722 0.089142499
## Height -0.012190329  0.141684490  1.00000000  0.796572579 0.048141525
## Weight -0.009038648  0.212040722  0.79657258  1.000000000 0.022175179
## Year    0.007066518  0.089142499  0.04814153  0.022175179 1.000000000

So we’re right in thinking that height and weight are correlated, but maybe not age. It is interesting to see that year is more correlated with age than any other variable!

Moving back to the full dataset, I have a few other questions I want to ask. First off, when did women start competing? It would be useful to know if our gender distributions have significantly different lengths. Let’s count() the number of male and female athletes per year:

AthleteEvents %>%
  count(Year, Sex)

## # A tibble: 69 x 3
##     Year Sex       n
##    <int> <chr> <int>
##  1  1896 M       380
##  2  1900 F        33
##  3  1900 M      1903
##  4  1904 F        16
##  5  1904 M      1285
##  6  1906 F        11
##  7  1906 M      1722
##  8  1908 F        47
##  9  1908 M      3054
## 10  1912 F        87
## # ... with 59 more rows
…
